9 Rasters, Zonal Statistics and Interpolation | GEOG0030: Geocomputation
…
# call function
lon_points_voronoi = st_thiessen_point(lonpollution_points)

# add attribute data =
lonpollution_tv = st_set_geometry(lonpollution_points, lon_points_voronoi)

# inspect
lonpollution_tv

## Simple feature collection with 96 features and 7 fields
## Geometry type: POLYGON
## Dimension:     XY
## Bounding box:  xmin: 460777.5 ymin: 117634.9 xmax: 599276.3 ymax: 244670.2
## Projected CRS: OSGB 1936 / British National Grid
## # A tibble: 96 × 8
##      no2 NAME                    GSS_CODE DISTRICT LAGSSCODE HECTARES NONLD_AREA
##  * <dbl> <chr>                   <chr>    <chr>    <chr>        <dbl>      <dbl>
##  1  41.4 Tolworth and Hook Rise  E050004… Kingsto… E09000021     259.          0
##  2  33.1 Coombe Hill             E050004… Kingsto… E09000021     442.          0
##  3  57.1 Grove                   E050004… Kingsto… E09000021     192.          0
##  4  28.7 Waddon                  E050114… Croydon  E09000008     392.          0
##  5  43.8 Norbury & Pollards Hill E050114… Croydon  E09000008     134.          0
##  6  44.4 Fairfield               E050114… Croydon  E09000008     147.          0
##  7  24.2 Bromley Town            E050001… Bromley  E09000006     372.          0
##  8  48.5 East Acton              E050001… Ealing   E09000009     428.          0
##  9  26.5 Southfield              E050001… Ealing   E09000009     143.          0
## 10  41.8 Acton Central           E050001… Ealing   E09000009     177.          0
## # … with 86 more rows, and 1 more variable: geometry <POLYGON [m]>
…
